…
$county
[1] NA

$timestamp
[1] "2024_11_05_19_06_50"

$data_history
# A tibble: 10,804 × 19
   state county  precinct_24 vote_mode   votes_precTotal_24 votes_24_dem votes_24_rep votePct_dem_24 votePct_rep_24 votes_20_dem votes_20_rep
   <chr> <chr>   <chr>       <chr>                    <int>        <int>        <int>          <dbl>          <dbl>        <dbl>        <dbl>
 1 GA    Appling 1B          Election D…                  0            0            0            NaN            NaN           NA           NA
 2 GA    Appling 1B          Absentee/M…                  0            0            0            NaN            NaN           NA           NA
 3 GA    Appling 1B          Provisional                  0            0            0            NaN            NaN           NA           NA
 4 GA    Appling 1B          Early Voti…                  0            0            0            NaN            NaN           NA           NA
 5 GA    Appling 1C          Election D…                  0            0            0            NaN            NaN           NA           NA
 6 GA    Appling 1C          Absentee/M…                  0            0            0            NaN            NaN           NA           NA
 7 GA    Appling 1C          Provisional                  0            0            0            NaN            NaN           NA           NA
 8 GA    Appling 1C          Early Voti…                  0            0            0            NaN            NaN           NA           NA
 9 GA    Appling 2           Election D…                  0            0            0            NaN            NaN           NA           NA
10 GA    Appling 2           Absentee/M…                  0            0            0            NaN            NaN           NA           NA
# ℹ 10,794 more rows
# ℹ 8 more variables: votePct_dem_20 <dbl>, votePct_rep_20 <dbl>, votes_precFinal_20 <dbl>, reported_eday <lgl>, reported_mail <lgl>,
#   reported_early <lgl>, reported_any <lgl>, reported_all <lgl>
# ℹ Use `print(n = ...)` to see more rows
…
$prec_reported_eday
[1] 0

$summaries
# A tibble: 1 × 22
  state swing_lower swing_estimate swing_upper demShare_20 repShare_20 demShare_lower demShare_estimate demShare_upper repShare_lower
  <chr>       <dbl>          <dbl>       <dbl>       <dbl>       <dbl>          <dbl>             <dbl>          <dbl>          <dbl>
1 GA            NaN            NaN         NaN         NaN         NaN            NaN               NaN            NaN            NaN
# ℹ 12 more variables: repShare_estimate <dbl>, repShare_upper <dbl>, votes_total_20 <dbl>, votes_total_24_lower <dbl>,
#   votes_total_24_estimate <dbl>, votes_total_24_upper <dbl>, demVotes_lower <dbl>, demVotes_estimate <dbl>, demVotes_upper <dbl>,
#   repVotes_lower <dbl>, repVotes_estimate <dbl>, repVotes_upper <dbl>

$summaries_byCounty
# A tibble: 318 × 24
   state county   timestamp           swing_lower swing_estimate swing_upper demShare_20 repShare_20 demShare_lower demShare_estimate
   <chr> <chr>    <dttm>                    <dbl>          <dbl>       <dbl>       <dbl>       <dbl>          <dbl>             <dbl>
 1 GA    Appling  2024-11-05 19:06:50         NaN            NaN         NaN         NaN         NaN            NaN               NaN
 2 GA    Atkinson 2024-11-05 19:06:50         NaN            NaN         NaN         NaN         NaN            NaN               NaN
 3 GA    Bacon    2024-11-05 19:06:50         NaN            NaN         NaN         NaN         NaN            NaN               NaN
 4 GA    Baker    2024-11-05 19:06:50         NaN            NaN         NaN         NaN         NaN            NaN               NaN
 5 GA    Baldwin  2024-11-05 19:06:50         NaN            NaN         NaN         NaN         NaN            NaN               NaN
 6 GA    Banks    2024-11-05 19:06:50         NaN            NaN         NaN         NaN         NaN            NaN               NaN
 7 GA    Barrow   2024-11-05 19:06:50         NaN            NaN         NaN         NaN         NaN            NaN               NaN
 8 GA    Bartow   2024-11-05 19:06:50         NaN            NaN         NaN         NaN         NaN            NaN               NaN
 9 GA    Ben Hill 2024-11-05 19:06:50         NaN            NaN         NaN         NaN         NaN            NaN               NaN
10 GA    Berrien  2024-11-05 19:06:50         NaN            NaN         NaN         NaN         NaN            NaN               NaN
# ℹ 308 more rows
# ℹ 14 more variables: demShare_upper <dbl>, repShare_lower <dbl>, repShare_estimate <dbl>, repShare_upper <dbl>, votes_total_20 <dbl>,
#   votes_total_24_lower <dbl>, votes_total_24_estimate <dbl>, votes_total_24_upper <dbl>, demVotes_lower <dbl>, demVotes_estimate <dbl>,
#   demVotes_upper <dbl>, repVotes_lower <dbl>, repVotes_estimate <dbl>, repVotes_upper <dbl>
# ℹ Use `print(n = ...)` to see more rows

$summaries_byMode
# A tibble: 4 × 25
  state vote_mode     swing_lower swing_estimate swing_upper demShare_20 repShare_20 demShare_lower demShare_estimate demShare_upper
  <chr> <chr>               <dbl>          <dbl>       <dbl>       <dbl>       <dbl>          <dbl>             <dbl>          <dbl>
1 GA    Election Day          NaN            NaN         NaN         NaN         NaN            NaN               NaN            NaN
2 GA    Absentee/Mail         NaN            NaN         NaN         NaN         NaN            NaN               NaN            NaN
3 GA    Provisional           NaN            NaN         NaN         NaN         NaN            NaN               NaN            NaN
4 GA    Early Voting          NaN            NaN         NaN         NaN         NaN            NaN               NaN            NaN
# ℹ 15 more variables: repShare_lower <dbl>, repShare_estimate <dbl>, repShare_upper <dbl>, votes_total_20 <dbl>,
#   votes_total_24_lower <dbl>, votes_total_24_estimate <dbl>, votes_total_24_upper <dbl>, demVotes_lower <dbl>, demVotes_estimate <dbl>,
#   demVotes_upper <dbl>, repVotes_lower <dbl>, repVotes_estimate <dbl>, repVotes_upper <dbl>, timestamp <dttm>, confidence <lgl>

$summaries_byCounty_byMode
# A tibble: 1,272 × 25
   state county  vote_mode timestamp           votes_total_20 votes_total_24_lower votes_total_24_estim…¹ votes_total_24_upper demVotes_lower
   <chr> <chr>   <chr>     <dttm>                       <dbl>                <dbl>                  <dbl>                <dbl>          <dbl>
 1 GA    Appling Election… 2024-11-05 19:06:50              0                    0                      0                    0              0
 2 GA    Appling Absentee… 2024-11-05 19:06:50              0                    0                      0                    0              0
 3 GA    Appling Provisio… 2024-11-05 19:06:50              0                    0                      0                    0              0
 4 GA    Appling Early Vo… 2024-11-05 19:06:50              0                    0                      0                    0              0
 5 GA    Atkins… Election… 2024-11-05 19:06:50              0                    0                      0                    0              0
 6 GA    Atkins… Absentee… 2024-11-05 19:06:50              0                    0                      0                    0              0
 7 GA    Atkins… Provisio… 2024-11-05 19:06:50              0                    0                      0                    0              0
 8 GA    Atkins… Early Vo… 2024-11-05 19:06:50              0                    0                      0                    0              0
 9 GA    Bacon   Election… 2024-11-05 19:06:50              0                    0                      0                    0              0
10 GA    Bacon   Absentee… 2024-11-05 19:06:50              0                    0                      0                    0              0
# ℹ 1,262 more rows
# ℹ abbreviated name: ¹​votes_total_24_estimate
# ℹ 16 more variables: demVotes_estimate <dbl>, demVotes_upper <dbl>, repVotes_lower <dbl>, repVotes_estimate <dbl>, repVotes_upper <dbl>,
#   demShare_20 <dbl>, repShare_20 <dbl>, demShare_lower <dbl>, demShare_estimate <dbl>, demShare_upper <dbl>, repShare_lower <dbl>,
#   repShare_estimate <dbl>, repShare_upper <dbl>, swing_lower <dbl>, swing_estimate <dbl>, swing_upper <dbl>
# ℹ Use `print(n = ...)` to see more rows

$state
[1] "GA"

$county
[1] NA

$timestamp
[1] "2024_11_05_19_06_50"

$data_history
# A tibble: 10,804 × 19
   state county  precinct_24 vote_mode   votes_precTotal_24 votes_24_dem votes_24_rep votePct_dem_24 votePct_rep_24 votes_20_dem votes_20_rep
   <chr> <chr>   <chr>       <chr>                    <int>        <int>        <int>          <dbl>          <dbl>        <dbl>        <dbl>
 1 GA    Appling 1B          Election D…                  0            0            0            NaN            NaN           NA           NA
 2 GA    Appling 1B          Absentee/M…                  0            0            0            NaN            NaN           NA           NA
 3 GA    Appling 1B          Provisional                  0            0            0            NaN            NaN           NA           NA
 4 GA    Appling 1B          Early Voti…                  0            0            0            NaN            NaN           NA           NA
 5 GA    Appling 1C          Election D…                  0            0            0            NaN            NaN           NA           NA
 6 GA    Appling 1C          Absentee/M…                  0            0            0            NaN            NaN           NA           NA
 7 GA    Appling 1C          Provisional                  0            0            0            NaN            NaN           NA           NA
 8 GA    Appling 1C          Early Voti…                  0            0            0            NaN            NaN           NA           NA
 9 GA    Appling 2           Election D…                  0            0            0            NaN            NaN           NA           NA
10 GA    Appling 2           Absentee/M…                  0            0            0            NaN            NaN           NA           NA
# ℹ 10,794 more rows
# ℹ 8 more variables: votePct_dem_20 <dbl>, votePct_rep_20 <dbl>, votes_precFinal_20 <dbl>, reported_eday <lgl>, reported_mail <lgl>,
#   reported_early <lgl>, reported_any <lgl>, reported_all <lgl>
# ℹ Use `print(n = ...)` to see more rows
…
$prec_reported_eday
[1] 0

$summaries
# A tibble: 1 × 22
  state swing_lower swing_estimate swing_upper demShare_20 repShare_20 demShare_lower demShare_estimate demShare_upper repShare_lower
  <chr>       <dbl>          <dbl>       <dbl>       <dbl>       <dbl>          <dbl>             <dbl>          <dbl>          <dbl>
1 GA            NaN            NaN         NaN         NaN         NaN            NaN               NaN            NaN            NaN
# ℹ 12 more variables: repShare_estimate <dbl>, repShare_upper <dbl>, votes_total_20 <dbl>, votes_total_24_lower <dbl>,
#   votes_total_24_estimate <dbl>, votes_total_24_upper <dbl>, demVotes_lower <dbl>, demVotes_estimate <dbl>, demVotes_upper <dbl>,
#   repVotes_lower <dbl>, repVotes_estimate <dbl>, repVotes_upper <dbl>

$summaries_byCounty
# A tibble: 318 × 24
   state county   timestamp           swing_lower swing_estimate swing_upper demShare_20 repShare_20 demShare_lower demShare_estimate
   <chr> <chr>    <dttm>                    <dbl>          <dbl>       <dbl>       <dbl>       <dbl>          <dbl>             <dbl>
 1 GA    Appling  2024-11-05 19:06:50         NaN            NaN         NaN         NaN         NaN            NaN               NaN
 2 GA    Atkinson 2024-11-05 19:06:50         NaN            NaN         NaN         NaN         NaN            NaN               NaN
 3 GA    Bacon    2024-11-05 19:06:50         NaN            NaN         NaN         NaN         NaN            NaN               NaN
 4 GA    Baker    2024-11-05 19:06:50         NaN            NaN         NaN         NaN         NaN            NaN               NaN
 5 GA    Baldwin  2024-11-05 19:06:50         NaN            NaN         NaN         NaN         NaN            NaN               NaN
 6 GA    Banks    2024-11-05 19:06:50         NaN            NaN         NaN         NaN         NaN            NaN               NaN
 7 GA    Barrow   2024-11-05 19:06:50         NaN            NaN         NaN         NaN         NaN            NaN               NaN
 8 GA    Bartow   2024-11-05 19:06:50         NaN            NaN         NaN         NaN         NaN            NaN               NaN
 9 GA    Ben Hill 2024-11-05 19:06:50         NaN            NaN         NaN         NaN         NaN            NaN               NaN
10 GA    Berrien  2024-11-05 19:06:50         NaN            NaN         NaN         NaN         NaN            NaN               NaN
# ℹ 308 more rows
# ℹ 14 more variables: demShare_upper <dbl>, repShare_lower <dbl>, repShare_estimate <dbl>, repShare_upper <dbl>, votes_total_20 <dbl>,
#   votes_total_24_lower <dbl>, votes_total_24_estimate <dbl>, votes_total_24_upper <dbl>, demVotes_lower <dbl>, demVotes_estimate <dbl>,
#   demVotes_upper <dbl>, repVotes_lower <dbl>, repVotes_estimate <dbl>, repVotes_upper <dbl>
# ℹ Use `print(n = ...)` to see more rows

$summaries_byMode
# A tibble: 4 × 25
  state vote_mode     swing_lower swing_estimate swing_upper demShare_20 repShare_20 demShare_lower demShare_estimate demShare_upper
  <chr> <chr>               <dbl>          <dbl>       <dbl>       <dbl>       <dbl>          <dbl>             <dbl>          <dbl>
1 GA    Election Day          NaN            NaN         NaN         NaN         NaN            NaN               NaN            NaN
2 GA    Absentee/Mail         NaN            NaN         NaN         NaN         NaN            NaN               NaN            NaN
3 GA    Provisional           NaN            NaN         NaN         NaN         NaN            NaN               NaN            NaN
4 GA    Early Voting          NaN            NaN         NaN         NaN         NaN            NaN               NaN            NaN
# ℹ 15 more variables: repShare_lower <dbl>, repShare_estimate <dbl>, repShare_upper <dbl>, votes_total_20 <dbl>,
#   votes_total_24_lower <dbl>, votes_total_24_estimate <dbl>, votes_total_24_upper <dbl>, demVotes_lower <dbl>, demVotes_estimate <dbl>,
#   demVotes_upper <dbl>, repVotes_lower <dbl>, repVotes_estimate <dbl>, repVotes_upper <dbl>, timestamp <dttm>, confidence <lgl>

$summaries_byCounty_byMode
# A tibble: 1,272 × 25
   state county  vote_mode timestamp           votes_total_20 votes_total_24_lower votes_total_24_estim…¹ votes_total_24_upper demVotes_lower
   <chr> <chr>   <chr>     <dttm>                       <dbl>                <dbl>                  <dbl>                <dbl>          <dbl>
 1 GA    Appling Election… 2024-11-05 19:06:50              0                    0                      0                    0              0
 2 GA    Appling Absentee… 2024-11-05 19:06:50              0                    0                      0                    0              0
 3 GA    Appling Provisio… 2024-11-05 19:06:50              0                    0                      0                    0              0
 4 GA    Appling Early Vo… 2024-11-05 19:06:50              0                    0                      0                    0              0
 5 GA    Atkins… Election… 2024-11-05 19:06:50              0                    0                      0                    0              0
 6 GA    Atkins… Absentee… 2024-11-05 19:06:50              0                    0                      0                    0              0
 7 GA    Atkins… Provisio… 2024-11-05 19:06:50              0                    0                      0                    0              0
 8 GA    Atkins… Early Vo… 2024-11-05 19:06:50              0                    0                      0                    0              0
 9 GA    Bacon   Election… 2024-11-05 19:06:50              0                    0                      0                    0              0
10 GA    Bacon   Absentee… 2024-11-05 19:06:50              0                    0                      0                    0              0
# ℹ 1,262 more rows
# ℹ abbreviated name: ¹​votes_total_24_estimate
# ℹ 16 more variables: demVotes_estimate <dbl>, demVotes_upper <dbl>, repVotes_lower <dbl>, repVotes_estimate <dbl>, repVotes_upper <dbl>,
#   demShare_20 <dbl>, repShare_20 <dbl>, demShare_lower <dbl>, demShare_estimate <dbl>, demShare_upper <dbl>, repShare_lower <dbl>,
#   repShare_estimate <dbl>, repShare_upper <dbl>, swing_lower <dbl>, swing_estimate <dbl>, swing_upper <dbl>
# ℹ Use `print(n = ...)` to see more rows

# A tibble: 10,804 × 19
   state county  precinct_24 vote_mode   votes_precTotal_24 votes_24_dem votes_24_rep votePct_dem_24 votePct_rep_24 votes_20_dem votes_20_rep
   <chr> <chr>   <chr>       <chr>                    <int>        <int>        <int>          <dbl>          <dbl>        <dbl>        <dbl>
 1 GA    Appling 1B          Election D…                  0            0            0            NaN            NaN           NA           NA
 2 GA    Appling 1B          Absentee/M…                  0            0            0            NaN            NaN           NA           NA
 3 GA    Appling 1B          Provisional                  0            0            0            NaN            NaN           NA           NA
 4 GA    Appling 1B          Early Voti…                  0            0            0            NaN            NaN           NA           NA
 5 GA    Appling 1C          Election D…                  0            0            0            NaN            NaN           NA           NA
 6 GA    Appling 1C          Absentee/M…                  0            0            0            NaN            NaN           NA           NA
 7 GA    Appling 1C          Provisional                  0            0            0            NaN            NaN           NA           NA
 8 GA    Appling 1C          Early Voti…                  0            0            0            NaN            NaN           NA           NA
 9 GA    Appling 2           Election D…                  0            0            0            NaN            NaN           NA           NA
10 GA    Appling 2           Absentee/M…                  0            0            0            NaN            NaN           NA           NA
# ℹ 10,794 more rows
# ℹ 8 more variables: votePct_dem_20 <dbl>, votePct_rep_20 <dbl>, votes_precFinal_20 <dbl>, reported_eday <lgl>, reported_mail <lgl>,
#   reported_early <lgl>, reported_any <lgl>, reported_all <lgl>
# ℹ Use `print(n = ...)` to see more rows
…
